﻿Polygon Id,Part Id,Point Id,X,Y
1,1,1,1,1
1,1,2,1,1.1
1,1,3,1,1.2
1,1,4,1,1.3
1,1,5,1,1.4
1,1,6,1,1.5
1,1,7,1,1.6
1,1,8,1,1.7
1,1,9,1,1.8
1,1,10,1,1.9
1,1,11,1,2
1,1,12,1,2.1
1,1,13,1,2.2
1,1,14,1,2.3
1,1,15,1,2.4
1,1,16,1,2.5
1,1,17,1,2.6
1,1,18,1,2.7
1,1,19,1,2.8
1,1,20,1,2.9
1,1,21,1,3
1,1,22,1,3.1
1,1,23,1,3.2
1,1,24,1,3.3
1,1,25,1,3.4
1,1,26,1,3.5
1,1,27,1,3.6
1,1,28,1,3.7
1,1,29,1,3.8
1,1,30,1,3.9
1,1,31,1,4
1,1,32,1,4.1
1,1,33,1,4.2
1,1,34,1,4.3
1,1,35,1,4.4
1,1,36,1.1,4.4
1,1,37,1.2,4.4
1,1,38,1.3,4.4
1,1,39,1.4,4.4
1,1,40,1.5,4.4
1,1,41,1.6,4.4
1,1,42,1.7,4.4
1,1,43,1.8,4.4
1,1,44,1.9,4.4
1,1,45,2,4.4
1,1,46,2.1,4.4
1,1,47,2.2,4.4
1,1,48,2.3,4.4
1,1,49,2.4,4.4
1,1,50,2.5,4.4
1,1,51,2.6,4.4
1,1,52,2.7,4.4
1,1,53,2.8,4.4
1,1,54,2.9,4.4
1,1,55,3,4.4
1,1,56,3.1,4.4
1,1,57,3.2,4.4
1,1,58,3.3,4.4
1,1,59,3.4,4.4
1,1,60,3.5,4.4
1,1,61,3.6,4.4
1,1,62,3.7,4.4
1,1,63,3.8,4.4
1,1,64,3.9,4.4
1,1,65,4,4.4
1,1,66,4.1,4.4
1,1,67,4.2,4.4
1,1,68,4.3,4.4
1,1,69,4.4,4.4
1,1,70,4.5,4.4
1,1,71,4.6,4.4
1,1,72,4.7,4.4
1,1,73,4.8,4.4
1,1,74,4.9,4.4
1,1,75,5,4.4
1,1,76,5.1,4.4
1,1,77,5.2,4.4
1,1,78,5.3,4.4
1,1,79,5.4,4.4
1,1,80,5.4,4.3
1,1,81,5.4,4.2
1,1,82,5.4,4.1
1,1,83,5.4,4
1,1,84,5.4,3.9
1,1,85,5.4,3.8
1,1,86,5.4,3.7
1,1,87,5.4,3.6
1,1,88,5.4,3.5
1,1,89,5.4,3.4
1,1,90,5.4,3.3
1,1,91,5.4,3.2
1,1,92,5.4,3.1
1,1,93,5.4,3
1,1,94,5.4,2.9
1,1,95,5.4,2.8
1,1,96,5.4,2.7
1,1,97,5.4,2.6
1,1,98,5.4,2.5
1,1,99,5.4,2.4
1,1,100,5.4,2.3
1,1,101,5.4,2.2
1,1,102,5.4,2.1
1,1,103,5.4,2
1,1,104,5.4,1.9
1,1,105,5.4,1.8
1,1,106,5.4,1.7
1,1,107,5.4,1.6
1,1,108,5.4,1.5
1,1,109,5.4,1.4
1,1,110,5.4,1.3
1,1,111,5.4,1.2
1,1,112,5.4,1.1
1,1,113,5.4,1
1,1,114,5.3,1
1,1,115,5.2,1
1,1,116,5.1,1
1,1,117,5,1
1,1,118,4.9,1
1,1,119,4.8,1
1,1,120,4.7,1
1,1,121,4.6,1
1,1,122,4.5,1
1,1,123,4.4,1
1,1,124,4.3,1
1,1,125,4.2,1
1,1,126,4.1,1
1,1,127,4,1
1,1,128,3.9,1
1,1,129,3.8,1
1,1,130,3.7,1
1,1,131,3.6,1
1,1,132,3.5,1
1,1,133,3.4,1
1,1,134,3.3,1
1,1,135,3.2,1
1,1,136,3.1,1
1,1,137,3,1
1,1,138,2.9,1
1,1,139,2.8,1
1,1,140,2.7,1
1,1,141,2.6,1
1,1,142,2.5,1
1,1,143,2.4,1
1,1,144,2.3,1
1,1,145,2.2,1
1,1,146,2.1,1
1,1,147,2.1,1.1
1,1,148,2.1,1.2
1,1,149,2.1,1.3
1,1,150,2.1,1.4
1,1,151,2.1,1.5
1,1,152,2.1,1.6
1,1,153,2.1,1.7
1,1,154,2.1,1.8
1,1,155,2.1,1.9
1,1,156,2.1,2
1,1,157,2.1,2.1
1,1,158,2.1,2.2
1,1,159,2.1,2.3
1,1,160,2.1,2.4
1,1,161,2.1,2.5
1,1,162,2.1,2.6
1,1,163,2.1,2.7
1,1,164,2.1,2.8
1,1,165,2.1,2.9
1,1,166,2.1,3
1,1,167,2.1,3.1
1,1,168,2.1,3.2
1,1,169,2.1,3.3
1,1,170,2.2,3.3
1,1,171,2.3,3.3
1,1,172,2.4,3.3
1,1,173,2.5,3.3
1,1,174,2.6,3.3
1,1,175,2.7,3.3
1,1,176,2.8,3.3
1,1,177,2.9,3.3
1,1,178,3,3.3
1,1,179,3.1,3.3
1,1,180,3.2,3.3
1,1,181,3.3,3.3
1,1,182,3.4,3.3
1,1,183,3.5,3.3
1,1,184,3.6,3.3
1,1,185,3.7,3.3
1,1,186,3.8,3.3
1,1,187,3.9,3.3
1,1,188,4,3.3
1,1,189,4.1,3.3
1,1,190,4.2,3.3
1,1,191,4.3,3.3
1,1,192,4.3,3.2
1,1,193,4.3,3.1
1,1,194,4.3,3
1,1,195,4.3,2.9
1,1,196,4.3,2.8
1,1,197,4.3,2.7
1,1,198,4.3,2.6
1,1,199,4.3,2.5
1,1,200,4.3,2.4
1,1,201,4.3,2.3
1,1,202,4.3,2.2
1,1,203,4.3,2.1
1,1,204,4.2,2.1
1,1,205,4.1,2.1
1,1,206,4,2.1
1,1,207,3.9,2.1
1,1,208,3.8,2.1
1,1,209,3.7,2.1
1,1,210,3.6,2.1
1,1,211,3.5,2.1
1,1,212,3.4,2.1
1,1,213,3.3,2.1
1,1,214,3.2,2.1
1,1,215,3.2,2.2
1,1,216,3.3,2.2
1,1,217,3.4,2.2
1,1,218,3.5,2.2
1,1,219,3.6,2.2
1,1,220,3.7,2.2
1,1,221,3.8,2.2
1,1,222,3.9,2.2
1,1,223,4,2.2
1,1,224,4.1,2.2
1,1,225,4.2,2.2
1,1,226,4.2,2.3
1,1,227,4.2,2.4
1,1,228,4.2,2.5
1,1,229,4.2,2.6
1,1,230,4.2,2.7
1,1,231,4.2,2.8
1,1,232,4.2,2.9
1,1,233,4.2,3
1,1,234,4.2,3.1
1,1,235,4.2,3.2
1,1,236,4.1,3.2
1,1,237,4,3.2
1,1,238,3.9,3.2
1,1,239,3.8,3.2
1,1,240,3.7,3.2
1,1,241,3.6,3.2
1,1,242,3.5,3.2
1,1,243,3.4,3.2
1,1,244,3.3,3.2
1,1,245,3.2,3.2
1,1,246,3.1,3.2
1,1,247,3,3.2
1,1,248,2.9,3.2
1,1,249,2.8,3.2
1,1,250,2.7,3.2
1,1,251,2.6,3.2
1,1,252,2.5,3.2
1,1,253,2.4,3.2
1,1,254,2.3,3.2
1,1,255,2.2,3.2
1,1,256,2.2,3.1
1,1,257,2.2,3
1,1,258,2.2,2.9
1,1,259,2.2,2.8
1,1,260,2.2,2.7
1,1,261,2.2,2.6
1,1,262,2.2,2.5
1,1,263,2.2,2.4
1,1,264,2.2,2.3
1,1,265,2.2,2.2
1,1,266,2.2,2.1
1,1,267,2.2,2
1,1,268,2.2,1.9
1,1,269,2.2,1.8
1,1,270,2.2,1.7
1,1,271,2.2,1.6
1,1,272,2.2,1.5
1,1,273,2.2,1.4
1,1,274,2.2,1.3
1,1,275,2.2,1.2
1,1,276,2.2,1.1
1,1,277,2.3,1.1
1,1,278,2.4,1.1
1,1,279,2.5,1.1
1,1,280,2.6,1.1
1,1,281,2.7,1.1
1,1,282,2.8,1.1
1,1,283,2.9,1.1
1,1,284,3,1.1
1,1,285,3.1,1.1
1,1,286,3.2,1.1
1,1,287,3.3,1.1
1,1,288,3.4,1.1
1,1,289,3.5,1.1
1,1,290,3.6,1.1
1,1,291,3.7,1.1
1,1,292,3.8,1.1
1,1,293,3.9,1.1
1,1,294,4,1.1
1,1,295,4.1,1.1
1,1,296,4.2,1.1
1,1,297,4.3,1.1
1,1,298,4.4,1.1
1,1,299,4.5,1.1
1,1,300,4.6,1.1
1,1,301,4.7,1.1
1,1,302,4.8,1.1
1,1,303,4.9,1.1
1,1,304,5,1.1
1,1,305,5.1,1.1
1,1,306,5.2,1.1
1,1,307,5.3,1.1
1,1,308,5.3,1.2
1,1,309,5.3,1.3
1,1,310,5.3,1.4
1,1,311,5.3,1.5
1,1,312,5.3,1.6
1,1,313,5.3,1.7
1,1,314,5.3,1.8
1,1,315,5.3,1.9
1,1,316,5.3,2
1,1,317,5.3,2.1
1,1,318,5.3,2.2
1,1,319,5.3,2.3
1,1,320,5.3,2.4
1,1,321,5.3,2.5
1,1,322,5.3,2.6
1,1,323,5.3,2.7
1,1,324,5.3,2.8
1,1,325,5.3,2.9
1,1,326,5.3,3
1,1,327,5.3,3.1
1,1,328,5.3,3.2
1,1,329,5.3,3.3
1,1,330,5.3,3.4
1,1,331,5.3,3.5
1,1,332,5.3,3.6
1,1,333,5.3,3.7
1,1,334,5.3,3.8
1,1,335,5.3,3.9
1,1,336,5.3,4
1,1,337,5.3,4.1
1,1,338,5.3,4.2
1,1,339,5.3,4.3
1,1,340,5.2,4.3
1,1,341,5.1,4.3
1,1,342,5,4.3
1,1,343,4.9,4.3
1,1,344,4.8,4.3
1,1,345,4.7,4.3
1,1,346,4.6,4.3
1,1,347,4.5,4.3
1,1,348,4.4,4.3
1,1,349,4.3,4.3
1,1,350,4.2,4.3
1,1,351,4.1,4.3
1,1,352,4,4.3
1,1,353,3.9,4.3
1,1,354,3.8,4.3
1,1,355,3.7,4.3
1,1,356,3.6,4.3
1,1,357,3.5,4.3
1,1,358,3.4,4.3
1,1,359,3.3,4.3
1,1,360,3.2,4.3
1,1,361,3.1,4.3
1,1,362,3,4.3
1,1,363,2.9,4.3
1,1,364,2.8,4.3
1,1,365,2.7,4.3
1,1,366,2.6,4.3
1,1,367,2.5,4.3
1,1,368,2.4,4.3
1,1,369,2.3,4.3
1,1,370,2.2,4.3
1,1,371,2.1,4.3
1,1,372,2,4.3
1,1,373,1.9,4.3
1,1,374,1.8,4.3
1,1,375,1.7,4.3
1,1,376,1.6,4.3
1,1,377,1.5,4.3
1,1,378,1.4,4.3
1,1,379,1.3,4.3
1,1,380,1.2,4.3
1,1,381,1.1,4.3
1,1,382,1.1,4.2
1,1,383,1.1,4.1
1,1,384,1.1,4
1,1,385,1.1,3.9
1,1,386,1.1,3.8
1,1,387,1.1,3.7
1,1,388,1.1,3.6
1,1,389,1.1,3.5
1,1,390,1.1,3.4
1,1,391,1.1,3.3
1,1,392,1.1,3.2
1,1,393,1.1,3.1
1,1,394,1.1,3
1,1,395,1.1,2.9
1,1,396,1.1,2.8
1,1,397,1.1,2.7
1,1,398,1.1,2.6
1,1,399,1.1,2.5
1,1,400,1.1,2.4
1,1,401,1.1,2.3
1,1,402,1.1,2.2
1,1,403,1.1,2.1
1,1,404,1.1,2
1,1,405,1.1,1.9
1,1,406,1.1,1.8
1,1,407,1.1,1.7
1,1,408,1.1,1.6
1,1,409,1.1,1.5
1,1,410,1.1,1.4
1,1,411,1.1,1.3
1,1,412,1.1,1.2
1,1,413,1.1,1.1
1,1,414,1.1,1
1,1,415,1,1
2,1,1,9.4,1
2,1,2,9.4,1.1
2,1,3,9.4,1.2
2,1,4,9.4,1.3
2,1,5,9.4,1.4
2,1,6,9.4,1.5
2,1,7,9.4,1.6
2,1,8,9.4,1.7
2,1,9,9.4,1.8
2,1,10,9.4,1.9
2,1,11,9.4,2
2,1,12,9.4,2.1
2,1,13,9.4,2.2
2,1,14,9.4,2.3
2,1,15,9.4,2.4
2,1,16,9.4,2.5
2,1,17,9.4,2.6
2,1,18,9.4,2.7
2,1,19,9.4,2.8
2,1,20,9.4,2.9
2,1,21,9.4,3
2,1,22,9.4,3.1
2,1,23,9.4,3.2
2,1,24,9.4,3.3
2,1,25,9.4,3.4
2,1,26,9.4,3.5
2,1,27,9.4,3.6
2,1,28,9.4,3.7
2,1,29,9.4,3.8
2,1,30,9.4,3.9
2,1,31,9.4,4
2,1,32,9.4,4.1
2,1,33,9.4,4.2
2,1,34,9.4,4.3
2,1,35,9.4,4.4
2,1,36,9.5,4.4
2,1,37,9.6,4.4
2,1,38,9.7,4.4
2,1,39,9.8,4.4
2,1,40,9.9,4.4
2,1,41,10,4.4
2,1,42,10.1,4.4
2,1,43,10.2,4.4
2,1,44,10.3,4.4
2,1,45,10.4,4.4
2,1,46,10.5,4.4
2,1,47,10.6,4.4
2,1,48,10.7,4.4
2,1,49,10.8,4.4
2,1,50,10.9,4.4
2,1,51,11,4.4
2,1,52,11.1,4.4
2,1,53,11.2,4.4
2,1,54,11.3,4.4
2,1,55,11.4,4.4
2,1,56,11.5,4.4
2,1,57,11.6,4.4
2,1,58,11.6,4.3
2,1,59,11.6,4.2
2,1,60,11.6,4.1
2,1,61,11.6,4
2,1,62,11.6,3.9
2,1,63,11.6,3.8
2,1,64,11.6,3.7
2,1,65,11.6,3.6
2,1,66,11.6,3.5
2,1,67,11.6,3.4
2,1,68,11.6,3.3
2,1,69,11.6,3.2
2,1,70,11.5,3.2
2,1,71,11.5,3.3
2,1,72,11.5,3.4
2,1,73,11.5,3.5
2,1,74,11.5,3.6
2,1,75,11.5,3.7
2,1,76,11.5,3.8
2,1,77,11.5,3.9
2,1,78,11.5,4
2,1,79,11.5,4.1
2,1,80,11.5,4.2
2,1,81,11.5,4.3
2,1,82,11.4,4.3
2,1,83,11.3,4.3
2,1,84,11.2,4.3
2,1,85,11.1,4.3
2,1,86,11,4.3
2,1,87,10.9,4.3
2,1,88,10.8,4.3
2,1,89,10.7,4.3
2,1,90,10.6,4.3
2,1,91,10.5,4.3
2,1,92,10.4,4.3
2,1,93,10.3,4.3
2,1,94,10.2,4.3
2,1,95,10.1,4.3
2,1,96,10,4.3
2,1,97,9.9,4.3
2,1,98,9.8,4.3
2,1,99,9.7,4.3
2,1,100,9.6,4.3
2,1,101,9.5,4.3
2,1,102,9.5,4.2
2,1,103,9.5,4.1
2,1,104,9.5,4
2,1,105,9.5,3.9
2,1,106,9.5,3.8
2,1,107,9.5,3.7
2,1,108,9.5,3.6
2,1,109,9.5,3.5
2,1,110,9.5,3.4
2,1,111,9.5,3.3
2,1,112,9.5,3.2
2,1,113,9.5,3.1
2,1,114,9.5,3
2,1,115,9.5,2.9
2,1,116,9.5,2.8
2,1,117,9.5,2.7
2,1,118,9.5,2.6
2,1,119,9.5,2.5
2,1,120,9.5,2.4
2,1,121,9.5,2.3
2,1,122,9.5,2.2
2,1,123,9.5,2.1
2,1,124,9.5,2
2,1,125,9.5,1.9
2,1,126,9.5,1.8
2,1,127,9.5,1.7
2,1,128,9.5,1.6
2,1,129,9.5,1.5
2,1,130,9.5,1.4
2,1,131,9.5,1.3
2,1,132,9.5,1.2
2,1,133,9.5,1.1
2,1,134,9.6,1.1
2,1,135,9.7,1.1
2,1,136,9.8,1.1
2,1,137,9.9,1.1
2,1,138,10,1.1
2,1,139,10.1,1.1
2,1,140,10.2,1.1
2,1,141,10.3,1.1
2,1,142,10.4,1.1
2,1,143,10.5,1.1
2,1,144,10.6,1.1
2,1,145,10.7,1.1
2,1,146,10.8,1.1
2,1,147,10.9,1.1
2,1,148,11,1.1
2,1,149,11.1,1.1
2,1,150,11.2,1.1
2,1,151,11.3,1.1
2,1,152,11.4,1.1
2,1,153,11.5,1.1
2,1,154,11.5,1.2
2,1,155,11.5,1.3
2,1,156,11.5,1.4
2,1,157,11.5,1.5
2,1,158,11.5,1.6
2,1,159,11.5,1.7
2,1,160,11.5,1.8
2,1,161,11.5,1.9
2,1,162,11.5,2
2,1,163,11.5,2.1
2,1,164,11.5,2.2
2,1,165,11.6,2.2
2,1,166,11.6,2.1
2,1,167,11.6,2
2,1,168,11.6,1.9
2,1,169,11.6,1.8
2,1,170,11.6,1.7
2,1,171,11.6,1.6
2,1,172,11.6,1.5
2,1,173,11.6,1.4
2,1,174,11.6,1.3
2,1,175,11.6,1.2
2,1,176,11.6,1.1
2,1,177,11.6,1
2,1,178,11.5,1
2,1,179,11.4,1
2,1,180,11.3,1
2,1,181,11.2,1
2,1,182,11.1,1
2,1,183,11,1
2,1,184,10.9,1
2,1,185,10.8,1
2,1,186,10.7,1
2,1,187,10.6,1
2,1,188,10.5,1
2,1,189,10.4,1
2,1,190,10.3,1
2,1,191,10.2,1
2,1,192,10.1,1
2,1,193,10,1
2,1,194,9.9,1
2,1,195,9.8,1
2,1,196,9.7,1
2,1,197,9.6,1
2,1,198,9.5,1
2,1,199,9.4,1
3,1,1,7.6,2.7
3,1,2,7.577091205,2.607055366
3,1,3,7.513612949,2.535403227
3,1,4,7.424107336,2.501458225
3,1,5,7.329079023,2.512996751
3,1,6,7.25029785,2.567375468
3,1,7,7.205811637,2.652136867
3,1,8,7.205811637,2.747863133
3,1,9,7.25029785,2.832624532
3,1,10,7.329079023,2.887003249
3,1,11,7.424107336,2.898541775
3,1,12,7.513612949,2.864596773
3,1,13,7.577091205,2.792944634
3,1,14,7.6,2.7
4,1,1,6.6,1.7
4,1,2,6.577091205,1.607055366
4,1,3,6.513612949,1.535403227
4,1,4,6.424107336,1.501458225
4,1,5,6.329079023,1.512996751
4,1,6,6.25029785,1.567375468
4,1,7,6.205811637,1.652136867
4,1,8,6.205811637,1.747863133
4,1,9,6.25029785,1.832624532
4,1,10,6.329079023,1.887003249
4,1,11,6.424107336,1.898541775
4,1,12,6.513612949,1.864596773
4,1,13,6.577091205,1.792944634
4,1,14,6.6,1.7
5,1,1,6.6,3.7
5,1,2,6.577091205,3.607055366
5,1,3,6.513612949,3.535403227
5,1,4,6.424107336,3.501458225
5,1,5,6.329079023,3.512996751
5,1,6,6.25029785,3.567375468
5,1,7,6.205811637,3.652136867
5,1,8,6.205811637,3.747863133
5,1,9,6.25029785,3.832624532
5,1,10,6.329079023,3.887003249
5,1,11,6.424107336,3.898541775
5,1,12,6.513612949,3.864596773
5,1,13,6.577091205,3.792944634
5,1,14,6.6,3.7
6,1,1,8.6,1.7
6,1,2,8.577091205,1.607055366
6,1,3,8.513612949,1.535403227
6,1,4,8.424107336,1.501458225
6,1,5,8.329079023,1.512996751
6,1,6,8.25029785,1.567375468
6,1,7,8.205811637,1.652136867
6,1,8,8.205811637,1.747863133
6,1,9,8.25029785,1.832624532
6,1,10,8.329079023,1.887003249
6,1,11,8.424107336,1.898541775
6,1,12,8.513612949,1.864596773
6,1,13,8.577091205,1.792944634
6,1,14,8.6,1.7
7,1,1,8.6,3.7
7,1,2,8.577091205,3.607055366
7,1,3,8.513612949,3.535403227
7,1,4,8.424107336,3.501458225
7,1,5,8.329079023,3.512996751
7,1,6,8.25029785,3.567375468
7,1,7,8.205811637,3.652136867
7,1,8,8.205811637,3.747863133
7,1,9,8.25029785,3.832624532
7,1,10,8.329079023,3.887003249
7,1,11,8.424107336,3.898541775
7,1,12,8.513612949,3.864596773
7,1,13,8.577091205,3.792944634
7,1,14,8.6,3.7
8,1,1,8.4,0
8,1,2,8.395184727,9.80E-02
8,1,3,8.38078528,0.195090322
8,1,4,8.356940336,0.290284677
8,1,5,8.323879533,0.382683432
8,1,6,8.281921264,0.471396737
8,1,7,8.231469612,0.555570233
8,1,8,8.173010453,0.634393284
8,1,9,8.107106781,0.707106781
8,1,10,8.034393284,0.773010453
8,1,11,7.955570233,0.831469612
8,1,12,7.871396737,0.881921264
8,1,13,7.782683432,0.923879533
8,1,14,7.690284677,0.956940336
8,1,15,7.595090322,0.98078528
8,1,16,7.49801714,0.995184727
8,1,17,7.4,1
8,1,18,7.30198286,0.995184727
8,1,19,7.204909678,0.98078528
8,1,20,7.109715323,0.956940336
8,1,21,7.017316568,0.923879533
8,1,22,6.928603263,0.881921264
8,1,23,6.844429767,0.831469612
8,1,24,6.765606716,0.773010453
8,1,25,6.692893219,0.707106781
8,1,26,6.626989547,0.634393284
8,1,27,6.568530388,0.555570233
8,1,28,6.518078736,0.471396737
8,1,29,6.476120467,0.382683432
8,1,30,6.443059664,0.290284677
8,1,31,6.41921472,0.195090322
8,1,32,6.404815273,9.80E-02
8,1,33,6.4,1.89E-14
8,1,34,6.3,0
8,1,35,6.2,0
8,1,36,6.1,0
8,1,37,6,0
8,1,38,5.9,0
8,1,39,5.8,0
8,1,40,5.7,0
8,1,41,5.6,0
8,1,42,5.5,0
8,1,43,5.4,0
8,1,44,5.3,0
8,1,45,5.2,0
8,1,46,5.1,0
8,1,47,5,0
8,1,48,4.9,0
8,1,49,4.8,0
8,1,50,4.7,0
8,1,51,4.6,0
8,1,52,4.5,0
8,1,53,4.4,0
8,1,54,4.3,0
8,1,55,4.2,0
8,1,56,4.1,0
8,1,57,4,0
8,1,58,3.9,0
8,1,59,3.8,0
8,1,60,3.7,0
8,1,61,3.6,0
8,1,62,3.5,0
8,1,63,3.4,0
8,1,64,3.3,0
8,1,65,3.2,0
8,1,66,3.1,0
8,1,67,3,0
8,1,68,2.9,0
8,1,69,2.8,0
8,1,70,2.7,0
8,1,71,2.6,0
8,1,72,2.5,0
8,1,73,2.4,0
8,1,74,2.3,0
8,1,75,2.2,0
8,1,76,2.1,0
8,1,77,2,0
8,1,78,1.9,0
8,1,79,1.8,0
8,1,80,1.7,0
8,1,81,1.6,0
8,1,82,1.5,0
8,1,83,1.4,0
8,1,84,1.3,0
8,1,85,1.2,0
8,1,86,1.1,0
8,1,87,1,0
8,1,88,0.9,0
8,1,89,0.8,0
8,1,90,0.7,0
8,1,91,0.6,0
8,1,92,0.5,0
8,1,93,0.4,0
8,1,94,0.3,0
8,1,95,0.2,0
8,1,96,0.1,0
8,1,97,0,0
8,1,98,0,1.00E-01
8,1,99,0,0.2
8,1,100,0,0.3
8,1,101,0,0.4
8,1,102,0,0.5
8,1,103,0,0.6
8,1,104,0,0.7
8,1,105,0,0.8
8,1,106,0,0.9
8,1,107,0,1
8,1,108,0,1.1
8,1,109,0,1.2
8,1,110,0,1.3
8,1,111,0,1.4
8,1,112,0,1.5
8,1,113,0,1.6
8,1,114,0,1.7
8,1,115,0,1.8
8,1,116,0,1.9
8,1,117,0,2
8,1,118,0,2.1
8,1,119,0,2.2
8,1,120,0,2.3
8,1,121,0,2.4
8,1,122,0,2.5
8,1,123,0,2.6
8,1,124,0,2.7
8,1,125,0,2.8
8,1,126,0,2.9
8,1,127,0,3
8,1,128,0,3.1
8,1,129,0,3.2
8,1,130,0,3.3
8,1,131,0,3.4
8,1,132,0,3.5
8,1,133,0,3.6
8,1,134,0,3.7
8,1,135,0,3.8
8,1,136,0,3.9
8,1,137,0,4
8,1,138,0,4.1
8,1,139,0,4.2
8,1,140,0,4.3
8,1,141,0,4.4
8,1,142,0,4.5
8,1,143,0,4.6
8,1,144,0,4.7
8,1,145,0,4.8
8,1,146,0,4.9
8,1,147,0,5
8,1,148,0,5.1
8,1,149,0,5.2
8,1,150,0,5.3
8,1,151,0,5.4
8,1,152,1.00E-01,5.4
8,1,153,0.2,5.4
8,1,154,0.3,5.4
8,1,155,0.4,5.4
8,1,156,0.5,5.4
8,1,157,0.6,5.4
8,1,158,0.7,5.4
8,1,159,0.8,5.4
8,1,160,0.9,5.4
8,1,161,1,5.4
8,1,162,1.1,5.4
8,1,163,1.2,5.4
8,1,164,1.3,5.4
8,1,165,1.4,5.4
8,1,166,1.5,5.4
8,1,167,1.6,5.4
8,1,168,1.7,5.4
8,1,169,1.8,5.4
8,1,170,1.9,5.4
8,1,171,2,5.4
8,1,172,2.1,5.4
8,1,173,2.2,5.4
8,1,174,2.3,5.4
8,1,175,2.4,5.4
8,1,176,2.5,5.4
8,1,177,2.6,5.4
8,1,178,2.7,5.4
8,1,179,2.8,5.4
8,1,180,2.9,5.4
8,1,181,3,5.4
8,1,182,3.1,5.4
8,1,183,3.2,5.4
8,1,184,3.3,5.4
8,1,185,3.4,5.4
8,1,186,3.5,5.4
8,1,187,3.6,5.4
8,1,188,3.7,5.4
8,1,189,3.8,5.4
8,1,190,3.9,5.4
8,1,191,4,5.4
8,1,192,4.1,5.4
8,1,193,4.2,5.4
8,1,194,4.3,5.4
8,1,195,4.4,5.4
8,1,196,4.5,5.4
8,1,197,4.6,5.4
8,1,198,4.7,5.4
8,1,199,4.8,5.4
8,1,200,4.9,5.4
8,1,201,5,5.4
8,1,202,5.1,5.4
8,1,203,5.2,5.4
8,1,204,5.3,5.4
8,1,205,5.4,5.4
8,1,206,5.5,5.4
8,1,207,5.6,5.4
8,1,208,5.7,5.4
8,1,209,5.8,5.4
8,1,210,5.9,5.4
8,1,211,6,5.4
8,1,212,6.1,5.4
8,1,213,6.2,5.4
8,1,214,6.3,5.4
8,1,215,6.4,5.4
8,1,216,6.404815273,5.30198286
8,1,217,6.41921472,5.204909678
8,1,218,6.443059664,5.109715323
8,1,219,6.476120467,5.017316568
8,1,220,6.518078736,4.928603263
8,1,221,6.568530388,4.844429767
8,1,222,6.626989547,4.765606716
8,1,223,6.692893219,4.692893219
8,1,224,6.765606716,4.626989547
8,1,225,6.844429767,4.568530388
8,1,226,6.928603263,4.518078736
8,1,227,7.017316568,4.476120467
8,1,228,7.109715323,4.443059664
8,1,229,7.204909678,4.41921472
8,1,230,7.30198286,4.404815273
8,1,231,7.4,4.4
8,1,232,7.49801714,4.404815273
8,1,233,7.595090322,4.41921472
8,1,234,7.690284677,4.443059664
8,1,235,7.782683432,4.476120467
8,1,236,7.871396737,4.518078736
8,1,237,7.955570233,4.568530388
8,1,238,8.034393284,4.626989547
8,1,239,8.107106781,4.692893219
8,1,240,8.173010453,4.765606716
8,1,241,8.231469612,4.844429767
8,1,242,8.281921264,4.928603263
8,1,243,8.323879533,5.017316568
8,1,244,8.356940336,5.109715323
8,1,245,8.38078528,5.204909678
8,1,246,8.395184727,5.30198286
8,1,247,8.4,5.4
8,1,248,8.5,5.4
8,1,249,8.6,5.4
8,1,250,8.7,5.4
8,1,251,8.8,5.4
8,1,252,8.9,5.4
8,1,253,9,5.4
8,1,254,9.1,5.4
8,1,255,9.2,5.4
8,1,256,9.3,5.4
8,1,257,9.4,5.4
8,1,258,9.5,5.4
8,1,259,9.6,5.4
8,1,260,9.7,5.4
8,1,261,9.8,5.4
8,1,262,9.9,5.4
8,1,263,10,5.4
8,1,264,10.1,5.4
8,1,265,10.2,5.4
8,1,266,10.3,5.4
8,1,267,10.4,5.4
8,1,268,10.5,5.4
8,1,269,10.6,5.4
8,1,270,10.7,5.4
8,1,271,10.8,5.4
8,1,272,10.9,5.4
8,1,273,11,5.4
8,1,274,11.1,5.4
8,1,275,11.2,5.4
8,1,276,11.3,5.4
8,1,277,11.4,5.4
8,1,278,11.5,5.4
8,1,279,11.6,5.4
8,1,280,11.7,5.4
8,1,281,11.8,5.4
8,1,282,11.9,5.4
8,1,283,12,5.4
8,1,284,12.1,5.4
8,1,285,12.2,5.4
8,1,286,12.3,5.4
8,1,287,12.4,5.4
8,1,288,12.5,5.4
8,1,289,12.6,5.4
8,1,290,12.6,5.3
8,1,291,12.6,5.2
8,1,292,12.6,5.1
8,1,293,12.6,5
8,1,294,12.6,4.9
8,1,295,12.6,4.8
8,1,296,12.6,4.7
8,1,297,12.6,4.6
8,1,298,12.6,4.5
8,1,299,12.6,4.4
8,1,300,12.6,4.3
8,1,301,12.6,4.2
8,1,302,12.6,4.1
8,1,303,12.6,4
8,1,304,12.6,3.9
8,1,305,12.6,3.8
8,1,306,12.6,3.7
8,1,307,12.6,3.6
8,1,308,12.6,3.5
8,1,309,12.6,3.4
8,1,310,12.6,3.3
8,1,311,12.6,3.2
8,1,312,12.6,3.1
8,1,313,12.6,3
8,1,314,12.6,2.9
8,1,315,12.6,2.8
8,1,316,12.6,2.7
8,1,317,12.6,2.6
8,1,318,12.6,2.5
8,1,319,12.6,2.4
8,1,320,12.6,2.3
8,1,321,12.6,2.2
8,1,322,12.6,2.1
8,1,323,12.6,2
8,1,324,12.6,1.9
8,1,325,12.6,1.8
8,1,326,12.6,1.7
8,1,327,12.6,1.6
8,1,328,12.6,1.5
8,1,329,12.6,1.4
8,1,330,12.6,1.3
8,1,331,12.6,1.2
8,1,332,12.6,1.1
8,1,333,12.6,1
8,1,334,12.6,0.9
8,1,335,12.6,0.8
8,1,336,12.6,0.7
8,1,337,12.6,0.6
8,1,338,12.6,0.5
8,1,339,12.6,0.4
8,1,340,12.6,0.3
8,1,341,12.6,0.2
8,1,342,12.6,0.1
8,1,343,12.6,0
8,1,344,12.5,0
8,1,345,12.4,0
8,1,346,12.3,0
8,1,347,12.2,0
8,1,348,12.1,0
8,1,349,12,0
8,1,350,11.9,0
8,1,351,11.8,0
8,1,352,11.7,0
8,1,353,11.6,0
8,1,354,11.5,0
8,1,355,11.4,0
8,1,356,11.3,0
8,1,357,11.2,0
8,1,358,11.1,0
8,1,359,11,0
8,1,360,10.9,0
8,1,361,10.8,0
8,1,362,10.7,0
8,1,363,10.6,0
8,1,364,10.5,0
8,1,365,10.4,0
8,1,366,10.3,0
8,1,367,10.2,0
8,1,368,10.1,0
8,1,369,10,0
8,1,370,9.9,0
8,1,371,9.8,0
8,1,372,9.7,0
8,1,373,9.6,0
8,1,374,9.5,0
8,1,375,9.4,0
8,1,376,9.3,0
8,1,377,9.2,0
8,1,378,9.1,0
8,1,379,9,0
8,1,380,8.9,0
8,1,381,8.8,0
8,1,382,8.7,0
8,1,383,8.6,0
8,1,384,8.5,0
8,1,385,8.4,0
